[
    { "label" : "07:00", "value": { "hour" :  7, "minute" : 0, "key": "07:00" } },  { "label" : "07:30", "value" : {"hour" :  7, "minute" : 30 , "key": "07:00"}},
    { "label" : "08:00", "value": { "hour" :  8, "minute" : 0, "key": "08:00" } },  { "label" : "08:30", "value" : {"hour" :  8, "minute" : 30 , "key": "08:00"}},
    { "label" : "09:00", "value": { "hour" :  9, "minute" : 0, "key": "09:00" } },  { "label" : "09:30", "value" : {"hour" :  9, "minute" : 30 , "key": "09:00"}},
    { "label" : "10:00", "value": { "hour" : 10, "minute" : 0, "key": "10:00" } },  { "label" : "10:30", "value" : {"hour" : 10, "minute" : 30 , "key": "10:00"}},
    { "label" : "11:00", "value": { "hour" : 11, "minute" : 0, "key": "11:00" } },  { "label" : "11:30", "value" : {"hour" : 11, "minute" : 30 , "key": "11:00"}},
    { "label" : "12:00", "value": { "hour" : 12, "minute" : 0, "key": "12:00" } },  { "label" : "12:30", "value" : {"hour" : 12, "minute" : 30 , "key": "12:00"}},
    { "label" : "13:00", "value": { "hour" : 13, "minute" : 0, "key": "13:00" } },  { "label" : "13:30", "value" : {"hour" : 13, "minute" : 30 , "key": "13:00"}},
    { "label" : "14:00", "value": { "hour" : 14, "minute" : 0, "key": "14:00" } },  { "label" : "14:30", "value" : {"hour" : 14, "minute" : 30 , "key": "14:00"}},
    { "label" : "15:00", "value": { "hour" : 15, "minute" : 0, "key": "15:00" } },  { "label" : "15:30", "value" : {"hour" : 15, "minute" : 30 , "key": "15:00"}},
    { "label" : "16:00", "value": { "hour" : 16, "minute" : 0, "key": "16:00" } },  { "label" : "16:30", "value" : {"hour" : 16, "minute" : 30 , "key": "16:00"}},
    { "label" : "17:00", "value": { "hour" : 17, "minute" : 0, "key": "17:00" } },  { "label" : "17:30", "value" : {"hour" : 17, "minute" : 30 , "key": "17:00"}},
    { "label" : "18:00", "value": { "hour" : 18, "minute" : 0, "key": "18:00" } },  { "label" : "18:30", "value" : {"hour" : 18, "minute" : 30 , "key": "18:00"}},
    { "label" : "19:00", "value": { "hour" : 19, "minute" : 0, "key": "19:00" } },  { "label" : "19:30", "value" : {"hour" : 19, "minute" : 30 , "key": "19:00"}},
    { "label" : "20:00", "value": { "hour" : 20, "minute" : 0, "key": "20:00" } },  { "label" : "20:30", "value" : {"hour" : 20, "minute" : 30 , "key": "20:00"}},
    { "label" : "21:00", "value": { "hour" : 21, "minute" : 0, "key": "21:00" } },  { "label" : "21:30", "value" : {"hour" : 21, "minute" : 30 , "key": "21:00"}},
    { "label" : "22:00", "value": { "hour" : 22, "minute" : 0, "key": "22:00" } },  { "label" : "22:30", "value" : {"hour" : 22, "minute" : 30 , "key": "22:00"}}
]