[
    {
        "id": "dashboard",
        "title": "Dashboard",
        "translate": "CRM",
        "type": "item",
        "icon": "whatshot",
        "auth": ""
    },
    {
        "id": "actions",
        "title": "Actions",
        "translate": "CRM",
        "type": "item",
        "icon": "whatshot",
        "auth": ""
    },
    {
        "id": "crm",
        "title": "CRM",
        "translate": "CRM",
        "type": "group",
        "icon": "whatshot",
        "auth": "",
        "children"  : [
            {
                "id"       : "musteriler",
                "title"    : "Musteirler",
                "translate": "Musteriler",
                "type"     : "group",
                "icon"     : "m",
                "children" : [
                    {
                        "id"       : "musteriler-aktif",
                        "title"    : "Aktif Musteirler",
                        "translate": "Musteriler",
                        "type"     : "item",
                        "icon"     : "m",
                        "url"       : "/"
                    },
                    {
                        "id"       : "musteriler-pasif",
                        "title"    : "Pasif Musteirler",
                        "translate": "Musteriler",
                        "type"     : "item",
                        "icon"     : "m",
                        "url"       : "/"
                    },
                    {
                        "id"       : "musteriler-potansiyel",
                        "title"    : "Potansiyel Musteirler",
                        "translate": "Musteriler",
                        "type"     : "item",
                        "icon"     : "m",
                        "url"       : "/"
                    }
                ]
            }
        ]
    },
    {
        "id": "admin",
        "title": "ADMIN",
        "translate": "ADMIN",
        "type": "group",
        "icon": "whatshot",
        "auth": "",
        "children": [
            {
                "id": "kulalnicila",
                "title": "Kullanicilar",
                "translate": "Kullanicilar",
                "type": "item",
                "icon": "whatshot",
                "auth": "",
                "url": "/"
            },
            {
                "id": "yetklier",
                "title": "Yetkliker",
                "translate": "Kullanicilar",
                "type": "item",
                "icon": "whatshot",
                "auth": "",
                "url": "/"
            }
        ]

    }
]