[
    "Ar-Ge Merkezi Satış Toplantısı",
    "Ar-Ge Merkezi Kurulum Toplantısı",
    "Ar-Ge Merkezi Hakem Eğitimi",
    "Ar-Ge Merkezi Hakem Ziyareti",
    "Ar-Ge Merkezi Kurul Öncesi Toplantı",
    "Ar-Ge Merkezi Mali Toplantı",
    "Ar-Ge Merkezi Teknik Toplantı",
    "Ar-Ge Merkezi Faaliyet Raporu Toplantısı",
    "Tasarım Merkezi Satış Toplantısı",
    "Tasarım Merkezi Kurulum Toplantısı",
    "Tasarım Merkezi Hakem Eğitimi",
    "Tasarım Merkezi Hakem Ziyareti",
    "Tasarım Merkezi Kurul Öncesi Toplantı",
    "Tasarım Merkezi Mali Toplantı",
    "Tasarım Merkezi Teknik Toplantı",
    "Tasarım Merkezi Faaliyet Raporu Toplantısı",
    "TÜBİTAK TEYDEB Satış Toplantısı",
    "TÜBİTAK TEYDEB Proje Yazım Toplantısı",
    "TÜBİTAK TEYDEB Dönem Raporu Toplantısı",
    "TÜBİTAK TEYDEB Teknik İlerleme Toplantısı",
    "TÜBİTAK TEYDEB Mali İlerleme Toplantısı",
    "TÜBİTAK TEYDEB Hakem Ziyareti",
    "TÜBİTAK TEYDEB Hakem Ziyareti Eğitimi",
    "OSGB Satış Toplantısı",
    "OSGB Toplantısı",
    "Yatırım Teşvik Satış Toplantısı",
    "Yatırım Teşvik Proje Yazılımı Toplantısı",
    "Yatırım Teşvik Teknik İlerleme Toplantısı",
    "Yatırım Teşvik Mali İlerleme Toplantısı",
    "KOSGEB Ar-Ge İnovasyon Satış Toplantısı",
    "KOSGEB Ar-Ge İnovasyon Proje Yazım Toplantısı",
    "KOSGEB Ar-Ge İnovasyon Dönem Raporu Toplantısı",
    "KOSGEB Ar-Ge İnovasyon Teknik İlerleme Toplantısı",
    "KOSGEB Ar-Ge İnovasyon Mali İlerleme Toplantısı",
    "KOSGEB Ar-Ge İnovasyon Hakem Ziyareti",
    "KOSGEB Ar-Ge İnovasyon Hakem Ziyareti Eğitimi",
    "KOSGEB Ar-Ge İnovasyon Kurul Hazırlık Toplantısı",
    "KOSGEB Endüstriyel Uygulama Satış Toplantısı",
    "KOSGEB Endüstriyel Uygulama Proje Yazım Toplantısı",
    "KOSGEB Endüstriyel Uygulama Dönem Raporu Toplantısı",
    "KOSGEB Endüstriyel Uygulama Teknik İlerleme Toplantısı",
    "KOSGEB Endüstriyel Uygulama Mali İlerleme Toplantısı",
    "KOSGEB Endüstriyel Uygulama Hakem Ziyareti",
    "KOSGEB Endüstriyel Uygulama Hakem Ziyareti Eğitimi",
    "KOSGEB Endüstriyel Uygulama Kurul Hazırlık Toplantısı",
    "KOSGEB Teknoyatırım Satış Toplantısı",
    "KOSGEB Teknoyatırım Proje Yazım Toplantısı",
    "KOSGEB Teknoyatırım Dönem Raporu Toplantısı",
    "KOSGEB Teknoyatırım Teknik İlerleme Toplantısı",
    "KOSGEB Teknoyatırım Mali İlerleme Toplantısı",
    "KOSGEB Teknoyatırım Hakem Ziyareti",
    "KOSGEB Teknoyatırım Hakem Ziyareti Eğitimi",
    "KOSGEB Teknoyatırım Kurul Hazırlık Toplantısı",
    "KOSGEB KOBİGEL Satış Toplantısı",
    "KOSGEB KOBİGEL Proje Yazım Toplantısı",
    "KOSGEB KOBİGEL Dönem Raporu Toplantısı",
    "KOSGEB KOBİGEL Teknik İlerleme Toplantısı",
    "KOSGEB KOBİGEL Mali İlerleme Toplantısı",
    "KOSGEB KOBİGEL Hakem Ziyareti",
    "KOSGEB KOBİGEL Hakem Ziyareti Eğitimi",
    "KOSGEB KOBİGEL Kurul Hazırlık Toplantısı",
    "KOSGEB Yurtdışı Pazar Satış Toplantısı",
    "KOSGEB Yurtdışı Pazar Proje Yazım Toplantısı",
    "KOSGEB Yurtdışı Pazar Dönem Raporu Toplantısı",
    "KOSGEB Yurtdışı Pazar Teknik İlerleme Toplantısı",
    "KOSGEB Yurtdışı Pazar Mali İlerleme Toplantısı",
    "KOSGEB Yurtdışı Pazar Hakem Ziyareti",
    "KOSGEB Yurtdışı Pazar Hakem Ziyareti Eğitimi",
    "KOSGEB Yurtdışı Pazar Kurul Hazırlık Toplantısı",
    "KTZ Satış Toplantısı",
    "KTZ Proje Yazım Toplantısı",
    "KTZ Dönem Raporu Toplantısı",
    "KTZ Teknik İlerleme Toplantısı",
    "KTZ Mali İlerleme Toplantısı",
    "KTZ Hakem Ziyareti",
    "KTZ Hakem Ziyareti Eğitimi",
    "KTZ  Kurul Hazırlık Toplantısı",
    "Tasarım Desteği Satış Toplantısı",
    "Tasarım Desteği Proje Yazım Toplantısı",
    "Tasarım Desteği Dönem Raporu Toplantısı",
    "Tasarım Desteği Teknik İlerleme Toplantısı",
    "Tasarım Desteği Mali İlerleme Toplantısı",
    "Tasarım Desteği Hakem Ziyareti",
    "Tasarım Desteği Hakem Ziyareti Eğitimi",
    "Tasarım Desteği  Kurul Hazırlık Toplantısı",
    "SGK Geçmiş Dönem Satış Toplantısı",
    "SGK Cari Dönem Satış Toplantısı",
    "SGK Cari Dönem Teknik Toplantı",
    "Satış Müşteri Ziyareti Toplantısı",
    "Satış Partner Ziyareti Toplantısı"
  ]